analog/resultados/AB/fft_pico_harmonico/fft_pico_harmonico.csv

Record Length,1.024000e+03,,          0.00000, -59.76910,
Sample Interval,2.466067e+00,,          2.46607, -52.56910,
Trigger Point,-0.000000000000e+00,,          4.93213, -52.16910,
,,,          7.39820, -52.16910,
,,,          9.86427, -52.56910,
,,,         12.33033, -52.56910,
Source,FFT,,         14.79640, -52.56910,
Vertical Units,dB,,         17.26247, -51.76910,
Vertical Scale,1.000000e+01,,         19.72854, -51.76910,
Vertical Offset,0.000000e+00,,         22.19460, -51.76910,
Horizontal Units,Hz,,         24.66067, -51.36910,
Horizontal Scale,2.525253e+02,,         27.12674, -50.96910,
Pt Fmt,Y,,         29.59280, -51.36910,
Yzero,-4.096910e+01,,         32.05887, -51.36910,
Probe Atten,1.000000e+00,,         34.52494, -50.96910,
Model Number,TBS1102B,,         36.99100, -50.56910,
Serial Number,C032210,,         39.45707, -49.76910,
Firmware Version,FV:v4.06,,         41.92314, -49.76910,
,,,44.38921, -49.76910,
,,,46.85528, -49.36910,
,,,49.32135, -48.56910,
,,,51.78742, -48.56910,
,,,54.25349, -48.16910,
,,,56.71956, -47.36910,
,,,59.18563, -46.96910,
,,,61.65170, -46.56910,
,,,64.11777, -46.16910,
,,,66.58384, -45.36910,
,,,69.04991, -44.56910,
,,,71.51598, -43.76910,
,,,73.98205, -42.96910,
,,,76.44812, -42.16910,
,,,78.91419, -41.36910,
,,,81.38026, -40.16910,
,,,83.84633, -38.96910,
,,,86.31240, -37.36910,
,,,88.77847, -35.76910,
,,,91.24454, -33.76910,
,,,93.71061, -30.56910,
,,,96.17668, -26.16910,
,,,98.64275, -17.36910,
,,,101.10882, -15.76910,
,,,103.57489, -25.76910,
,,,106.04096, -30.16910,
,,,108.50703, -33.36910,
,,,110.97310, -35.36910,
,,,113.43917, -36.96910,
,,,115.90524, -38.56910,
,,,118.37131, -39.76910,
,,,120.83738, -40.96910,
,,,123.30345, -41.76910,
,,,125.76952, -42.56910,
,,,128.23559, -43.36910,
,,,130.70166, -44.16910,
,,,133.16773, -44.56910,
,,,135.63380, -45.36910,
,,,138.09987, -45.76910,
,,,140.56594, -46.56910,
,,,143.03201, -46.96910,
,,,145.49808, -47.76910,
,,,147.96415, -47.76910,
,,,150.43022, -48.16910,
,,,152.89629, -48.96910,
,,,155.36236, -48.96910,
,,,157.82843, -49.36910,
,,,160.29450, -49.76910,
,,,162.76057, -50.16910,
,,,165.22664, -50.16910,
,,,167.69271, -50.96910,
,,,170.15878, -50.56910,
,,,172.62485, -51.36910,
,,,175.09092, -51.36910,
,,,177.55699, -51.76910,
,,,180.02306, -52.16910,
,,,182.48913, -52.16910,
,,,184.95520, -52.16910,
,,,187.42127, -52.56910,
,,,189.88734, -52.96910,
,,,192.35341, -53.36910,
,,,194.81948, -53.36910,
,,,197.28555, -53.36910,
,,,199.75162, -54.56910,
,,,202.21769, -54.16910,
,,,204.68376, -54.56910,
,,,207.14983, -54.96910,
,,,209.61590, -54.16910,
,,,212.08197, -54.56910,
,,,214.54804, -55.36910,
,,,217.01411, -54.56910,
,,,219.48018, -55.36910,
,,,221.94625, -55.36910,
,,,224.41232, -56.16910,
,,,226.87839, -56.16910,
,,,229.34446, -56.16910,
,,,231.81053, -55.76910,
,,,234.27660, -55.36910,
,,,236.74267, -55.76910,
,,,239.20874, -56.16910,
,,,241.67481, -56.16910,
,,,244.14088, -56.16910,
,,,246.60695, -57.36910,
,,,249.07302, -56.96910,
,,,251.53909, -56.96910,
,,,254.00516, -56.56910,
,,,256.47123, -57.76910,
,,,258.93730, -57.76910,
,,,261.40337, -57.36910,
,,,263.86944, -58.16910,
,,,266.33551, -57.76910,
,,,268.80158, -57.36910,
,,,271.26765, -59.36910,
,,,273.73372, -58.16910,
,,,276.19979, -58.16910,
,,,278.66586, -57.76910,
,,,281.13193, -58.56910,
,,,283.59800, -58.96910,
,,,286.06407, -58.56910,
,,,288.53014, -58.56910,
,,,290.99621, -58.96910,
,,,293.46228, -58.16910,
,,,295.92835, -58.56910,
,,,298.39442, -58.56910,
,,,300.86049, -58.16910,
,,,303.32656, -59.36910,
,,,305.79263, -59.76910,
,,,308.25870, -59.36910,
,,,310.72477, -59.76910,
,,,313.19084, -59.36910,
,,,315.65691, -59.36910,
,,,318.12298, -59.36910,
,,,320.58905, -59.76910,
,,,323.05512, -59.76910,
,,,325.52119, -59.76910,
,,,327.98726, -60.16910,
,,,330.45333, -59.76910,
,,,332.91940, -60.16910,
,,,335.38547, -60.56910,
,,,337.85154, -59.76910,
,,,340.31761, -60.96910,
,,,342.78368, -60.56910,
,,,345.24975, -61.76910,
,,,347.71582, -59.36910,
,,,350.18189, -60.56910,
,,,352.64796, -61.36910,
,,,355.11403, -60.16910,
,,,357.58010, -60.56910,
,,,360.04617, -60.56910,
,,,362.51224, -60.96910,
,,,364.97831, -60.16910,
,,,367.44438, -60.96910,
,,,369.91045, -60.56910,
,,,372.37652, -61.76910,
,,,374.84259, -61.36910,
,,,377.30866, -61.36910,
,,,379.77473, -61.36910,
,,,382.24080, -62.56910,
,,,384.70687, -62.16910,
,,,387.17294, -62.96910,
,,,389.63901, -61.36910,
,,,392.10508, -60.96910,
,,,394.57115, -60.96910,
,,,397.03722, -63.76910,
,,,399.50329, -62.16910,
,,,401.96936, -62.96910,
,,,404.43543, -60.56910,
,,,406.90150, -62.56910,
,,,409.36757, -62.56910,
,,,411.83364, -62.96910,
,,,414.29971, -62.56910,
,,,416.76578, -62.16910,
,,,419.23185, -62.96910,
,,,421.69792, -61.76910,
,,,424.16399, -61.36910,
,,,426.63006, -63.76910,
,,,429.09613, -63.36910,
,,,431.56220, -62.96910,
,,,434.02827, -62.56910,
,,,436.49434, -63.76910,
,,,438.96041, -62.96910,
,,,441.42648, -62.56910,
,,,443.89255, -63.36910,
,,,446.35862, -62.56910,
,,,448.82469, -63.36910,
,,,451.29076, -63.76910,
,,,453.75683, -63.76910,
,,,456.22290, -63.76910,
,,,458.68897, -62.56910,
,,,461.15504, -64.96910,
,,,463.62111, -63.36910,
,,,466.08718, -64.56910,
,,,468.55325, -64.96910,
,,,471.01932, -63.36910,
,,,473.48539, -64.16910,
,,,475.95146, -63.76910,
,,,478.41753, -63.76910,
,,,480.88360, -64.96910,
,,,483.34967, -64.56910,
,,,485.81574, -64.96910,
,,,488.28181, -63.36910,
,,,490.74788, -63.76910,
,,,493.21395, -64.96910,
,,,495.68002, -64.56910,
,,,498.14609, -61.76910,
,,,500.61216, -64.56910,
,,,503.07823, -66.16910,
,,,505.54430, -64.96910,
,,,508.01037, -63.76910,
,,,510.47644, -64.56910,
,,,512.94251, -63.36910,
,,,515.40858, -64.56910,
,,,517.87465, -65.76910,
,,,520.34072, -62.96910,
,,,522.80679, -63.36910,
,,,525.27286, -64.16910,
,,,527.73893, -65.76910,
,,,530.20500, -65.76910,
,,,532.67107, -64.96910,
,,,535.13714, -64.56910,
,,,537.60321, -64.96910,
,,,540.06928, -64.56910,
,,,542.53535, -66.56910,
,,,545.00142, -65.76910,
,,,547.46749, -65.36910,
,,,549.93356, -64.96910,
,,,552.39963, -62.96910,
,,,554.86570, -64.56910,
,,,557.33177, -67.76910,
,,,559.79784, -64.96910,
,,,562.26391, -64.56910,
,,,564.72998, -64.96910,
,,,567.19605, -64.56910,
,,,569.66212, -65.76910,
,,,572.12819, -66.16910,
,,,574.59426, -63.36910,
,,,577.06033, -64.16910,
,,,579.52640, -65.76910,
,,,581.99247, -65.76910,
,,,584.45854, -66.16910,
,,,586.92461, -67.36910,
,,,589.39068, -66.16910,
,,,591.85675, -65.76910,
,,,594.32282, -65.76910,
,,,596.78889, -68.16910,
,,,599.25496, -62.16910,
,,,601.72103, -66.16910,
,,,604.18710, -66.16910,
,,,606.65317, -64.96910,
,,,609.11924, -66.16910,
,,,611.58531, -67.36910,
,,,614.05138, -66.56910,
,,,616.51745, -65.76910,
,,,618.98352, -66.16910,
,,,621.44959, -67.36910,
,,,623.91566, -66.16910,
,,,626.38173, -65.76910,
,,,628.84780, -66.96910,
,,,631.31387, -66.56910,
,,,633.77994, -65.36910,
,,,636.24601, -69.36910,
,,,638.71208, -68.96910,
,,,641.17815, -67.76910,
,,,643.64422, -67.36910,
,,,646.11029, -66.16910,
,,,648.57636, -68.16910,
,,,651.04243, -68.56910,
,,,653.50850, -70.16910,
,,,655.97457, -67.36910,
,,,658.44064, -67.36910,
,,,660.90671, -66.16910,
,,,663.37278, -67.36910,
,,,665.83885, -64.56910,
,,,668.30492, -68.96910,
,,,670.77099, -66.16910,
,,,673.23706, -68.16910,
,,,675.70313, -68.16910,
,,,678.16920, -66.16910,
,,,680.63527, -66.96910,
,,,683.10134, -68.56910,
,,,685.56741, -67.76910,
,,,688.03348, -68.16910,
,,,690.49955, -68.16910,
,,,692.96562, -69.36910,
,,,695.43169, -68.16910,
,,,697.89776, -66.16910,
,,,700.36383, -66.16910,
,,,702.82990, -68.16910,
,,,705.29597, -68.16910,
,,,707.76204, -66.96910,
,,,710.22811, -68.16910,
,,,712.69418, -67.36910,
,,,715.16025, -68.56910,
,,,717.62632, -66.16910,
,,,720.09239, -67.76910,
,,,722.55846, -68.16910,
,,,725.02453, -67.76910,
,,,727.49060, -66.56910,
,,,729.95667, -66.16910,
,,,732.42274, -64.96910,
,,,734.88881, -66.56910,
,,,737.35488, -67.36910,
,,,739.82095, -68.56910,
,,,742.28702, -67.76910,
,,,744.75309, -66.56910,
,,,747.21916, -67.36910,
,,,749.68523, -67.76910,
,,,752.15130, -65.36910,
,,,754.61737, -68.96910,
,,,757.08344, -67.36910,
,,,759.54951, -69.36910,
,,,762.01558, -68.16910,
,,,764.48165, -68.96910,
,,,766.94772, -69.76910,
,,,769.41379, -66.96910,
,,,771.87986, -66.96910,
,,,774.34593, -70.56910,
,,,776.81200, -68.56910,
,,,779.27807, -67.36910,
,,,781.74414, -68.56910,
,,,784.21021, -68.56910,
,,,786.67628, -66.96910,
,,,789.14235, -69.36910,
,,,791.60842, -66.96910,
,,,794.07449, -67.36910,
,,,796.54056, -66.16910,
,,,799.00663, -68.16910,
,,,801.47270, -73.76910,
,,,803.93877, -70.96910,
,,,806.40484, -66.56910,
,,,808.87091, -66.16910,
,,,811.33698, -66.56910,
,,,813.80305, -67.36910,
,,,816.26912, -68.56910,
,,,818.73519, -67.36910,
,,,821.20126, -69.76910,
,,,823.66733, -68.16910,
,,,826.13340, -69.76910,
,,,828.59947, -67.36910,
,,,831.06554, -68.16910,
,,,833.53161, -69.76910,
,,,835.99768, -69.76910,
,,,838.46375, -70.96910,
,,,840.92982, -68.96910,
,,,843.39589, -68.16910,
,,,845.86196, -66.56910,
,,,848.32803, -66.16910,
,,,850.79410, -67.76910,
,,,853.26017, -71.76910,
,,,855.72624, -70.96910,
,,,858.19231, -68.56910,
,,,860.65838, -70.16910,
,,,863.12445, -68.56910,
,,,865.59052, -69.76910,
,,,868.05659, -68.16910,
,,,870.52266, -68.96910,
,,,872.98873, -66.96910,
,,,875.45480, -71.36910,
,,,877.92087, -68.56910,
,,,880.38694, -68.16910,
,,,882.85301, -68.56910,
,,,885.31908, -68.56910,
,,,887.78515, -67.76910,
,,,890.25122, -70.56910,
,,,892.71729, -71.76910,
,,,895.18336, -69.36910,
,,,897.64943, -70.56910,
,,,900.11550, -68.16910,
,,,902.58157, -69.76910,
,,,905.04764, -66.56910,
,,,907.51371, -69.76910,
,,,909.97978, -69.76910,
,,,912.44585, -72.16910,
,,,914.91192, -67.76910,
,,,917.37799, -69.36910,
,,,919.84406, -70.56910,
,,,922.31013, -66.96910,
,,,924.77620, -72.96910,
,,,927.24227, -69.36910,
,,,929.70834, -69.36910,
,,,932.17441, -68.96910,
,,,934.64048, -70.16910,
,,,937.10655, -68.96910,
,,,939.57262, -71.76910,
,,,942.03869, -68.56910,
,,,944.50476, -68.16910,
,,,946.97083, -70.16910,
,,,949.43690, -72.96910,
,,,951.90297, -68.56910,
,,,954.36904, -72.56910,
,,,956.83511, -72.16910,
,,,959.30118, -70.96910,
,,,961.76725, -72.56910,
,,,964.23332, -67.76910,
,,,966.69939, -70.16910,
,,,969.16546, -68.16910,
,,,971.63153, -70.56910,
,,,974.09760, -71.36910,
,,,976.56367, -71.76910,
,,,979.02974, -71.36910,
,,,981.49581, -72.56910,
,,,983.96188, -71.76910,
,,,986.42795, -72.16910,
,,,988.89402, -66.96910,
,,,991.36009, -70.96910,
,,,993.82616, -70.56910,
,,,996.29223, -67.36910,
,,,998.75830, -65.36910,
,,,1001.22437, -77.76910,
,,,1003.69044, -68.16910,
,,,1006.15651, -74.16910,
,,,1008.62258, -72.56910,
,,,1011.08865, -70.96910,
,,,1013.55472, -69.76910,
,,,1016.02079, -71.76910,
,,,1018.48686, -70.56910,
,,,1020.95293, -72.96910,
,,,1023.41900, -71.76910,
,,,1025.88507, -68.96910,
,,,1028.35114, -72.16910,
,,,1030.81721, -71.36910,
,,,1033.28328, -69.76910,
,,,1035.74935, -69.76910,
,,,1038.21542, -70.16910,
,,,1040.68149, -68.56910,
,,,1043.14756, -70.16910,
,,,1045.61363, -68.16910,
,,,1048.07970, -68.56910,
,,,1050.54577, -68.56910,
,,,1053.01184, -69.76910,
,,,1055.47791, -69.36910,
,,,1057.94398, -68.96910,
,,,1060.41005, -70.56910,
,,,1062.87612, -70.96910,
,,,1065.34219, -69.76910,
,,,1067.80826, -72.96910,
,,,1070.27433, -72.96910,
,,,1072.74040, -70.56910,
,,,1075.20647, -69.76910,
,,,1077.67254, -69.76910,
,,,1080.13861, -72.56910,
,,,1082.60468, -70.96910,
,,,1085.07075, -72.56910,
,,,1087.53682, -72.56910,
,,,1090.00289, -66.56910,
,,,1092.46896, -69.76910,
,,,1094.93503, -71.36910,
,,,1097.40110, -71.36910,
,,,1099.86717, -77.76910,
,,,1102.33324, -69.36910,
,,,1104.79931, -69.76910,
,,,1107.26538, -71.36910,
,,,1109.73145, -73.36910,
,,,1112.19752, -73.76910,
,,,1114.66359, -71.76910,
,,,1117.12966, -68.56910,
,,,1119.59573, -68.96910,
,,,1122.06180, -73.76910,
,,,1124.52787, -70.56910,
,,,1126.99394, -72.16910,
,,,1129.46001, -71.36910,
,,,1131.92608, -70.56910,
,,,1134.39215, -72.96910,
,,,1136.85822, -69.76910,
,,,1139.32429, -69.76910,
,,,1141.79036, -73.36910,
,,,1144.25643, -74.96910,
,,,1146.72250, -68.16910,
,,,1149.18857, -68.96910,
,,,1151.65464, -71.36910,
,,,1154.12071, -74.56910,
,,,1156.58678, -71.36910,
,,,1159.05285, -70.96910,
,,,1161.51892, -70.16910,
,,,1163.98499, -74.16910,
,,,1166.45106, -72.96910,
,,,1168.91713, -75.36910,
,,,1171.38320, -70.56910,
,,,1173.84927, -75.76910,
,,,1176.31534, -72.96910,
,,,1178.78141, -72.56910,
,,,1181.24748, -71.36910,
,,,1183.71355, -76.16910,
,,,1186.17962, -71.76910,
,,,1188.64569, -72.16910,
,,,1191.11176, -72.16910,
,,,1193.57783, -70.56910,
,,,1196.04390, -68.96910,
,,,1198.50997, -73.76910,
,,,1200.97604, -66.56910,
,,,1203.44211, -71.36910,
,,,1205.90818, -68.96910,
,,,1208.37425, -72.56910,
,,,1210.84032, -70.16910,
,,,1213.30639, -68.16910,
,,,1215.77246, -71.76910,
,,,1218.23853, -72.56910,
,,,1220.70460, -72.56910,
,,,1223.17067, -70.16910,
,,,1225.63674, -73.36910,
,,,1228.10281, -70.16910,
,,,1230.56888, -69.36910,
,,,1233.03495, -72.96910,
,,,1235.50102, -71.76910,
,,,1237.96709, -70.16910,
,,,1240.43316, -72.56910,
,,,1242.89923, -72.16910,
,,,1245.36530, -69.76910,
,,,1247.83137, -70.96910,
,,,1250.29744, -70.96910,
,,,1252.76351, -70.16910,
,,,1255.22958, -72.96910,
,,,1257.69565, -72.56910,
,,,1260.16172, -75.76910,
,,,1262.62779, -72.96910,
,,,1265.09386, -74.96910,
,,,1267.55993, -72.96910,
,,,1270.02600, -72.96910,
,,,1272.49207, -74.16910,
,,,1274.95814, -70.96910,
,,,1277.42421, -73.76910,
,,,1279.89028, -69.76910,
,,,1282.35635, -72.56910,
,,,1284.82242, -74.16910,
,,,1287.28849, -76.16910,
,,,1289.75456, -69.76910,
,,,1292.22063, -76.16910,
,,,1294.68670, -80.56910,
,,,1297.15277, -77.76910,
,,,1299.61884, -71.36910,
,,,1302.08491, -73.36910,
,,,1304.55098, -69.76910,
,,,1307.01705, -67.76910,
,,,1309.48312, -72.96910,
,,,1311.94919, -67.76910,
,,,1314.41526, -69.76910,
,,,1316.88133, -67.36910,
,,,1319.34740, -70.96910,
,,,1321.81347, -71.36910,
,,,1324.27954, -75.76910,
,,,1326.74561, -71.36910,
,,,1329.21168, -71.36910,
,,,1331.67775, -72.96910,
,,,1334.14382, -72.16910,
,,,1336.60989, -73.76910,
,,,1339.07596, -75.76910,
,,,1341.54203, -70.96910,
,,,1344.00810, -74.96910,
,,,1346.47417, -74.96910,
,,,1348.94024, -70.56910,
,,,1351.40631, -70.56910,
,,,1353.87238, -70.96910,
,,,1356.33845, -72.56910,
,,,1358.80452, -69.76910,
,,,1361.27059, -70.56910,
,,,1363.73666, -69.76910,
,,,1366.20273, -72.96910,
,,,1368.66880, -72.96910,
,,,1371.13487, -72.96910,
,,,1373.60094, -72.96910,
,,,1376.06701, -70.96910,
,,,1378.53308, -73.76910,
,,,1380.99915, -70.96910,
,,,1383.46522, -74.56910,
,,,1385.93129, -71.76910,
,,,1388.39736, -72.16910,
,,,1390.86343, -73.36910,
,,,1393.32950, -76.96910,
,,,1395.79557, -80.96910,
,,,1398.26164, -80.96910,
,,,1400.72771, -68.96910,
,,,1403.19378, -70.16910,
,,,1405.65985, -68.96910,
,,,1408.12592, -73.36910,
,,,1410.59199, -69.76910,
,,,1413.05806, -70.56910,
,,,1415.52413, -74.96910,
,,,1417.99020, -71.76910,
,,,1420.45627, -69.76910,
,,,1422.92234, -74.16910,
,,,1425.38841, -73.76910,
,,,1427.85448, -70.56910,
,,,1430.32055, -74.16910,
,,,1432.78662, -76.96910,
,,,1435.25269, -73.76910,
,,,1437.71876, -74.16910,
,,,1440.18483, -70.96910,
,,,1442.65090, -70.96910,
,,,1445.11697, -68.56910,
,,,1447.58304, -75.76910,
,,,1450.04911, -78.96910,
,,,1452.51518, -75.76910,
,,,1454.98125, -70.56910,
,,,1457.44732, -76.56910,
,,,1459.91339, -72.56910,
,,,1462.37946, -70.96910,
,,,1464.84553, -72.96910,
,,,1467.31160, -76.56910,
,,,1469.77767, -76.16910,
,,,1472.24374, -72.96910,
,,,1474.70981, -68.56910,
,,,1477.17588, -72.96910,
,,,1479.64195, -72.96910,
,,,1482.10802, -70.56910,
,,,1484.57409, -75.36910,
,,,1487.04016, -72.96910,
,,,1489.50623, -69.36910,
,,,1491.97230, -74.96910,
,,,1494.43837, -74.96910,
,,,1496.90444, -73.36910,
,,,1499.37051, -69.36910,
,,,1501.83658, -72.16910,
,,,1504.30265, -74.96910,
,,,1506.76872, -70.16910,
,,,1509.23479, -70.56910,
,,,1511.70086, -71.76910,
,,,1514.16693, -71.76910,
,,,1516.63300, -70.96910,
,,,1519.09907, -73.76910,
,,,1521.56514, -71.36910,
,,,1524.03121, -73.36910,
,,,1526.49728, -73.36910,
,,,1528.96335, -69.36910,
,,,1531.42942, -70.96910,
,,,1533.89549, -70.96910,
,,,1536.36156, -70.16910,
,,,1538.82763, -70.56910,
,,,1541.29370, -74.96910,
,,,1543.75977, -74.56910,
,,,1546.22584, -73.76910,
,,,1548.69191, -75.76910,
,,,1551.15798, -70.96910,
,,,1553.62405, -68.96910,
,,,1556.09012, -75.76910,
,,,1558.55619, -72.96910,
,,,1561.02226, -73.76910,
,,,1563.48833, -71.36910,
,,,1565.95440, -70.56910,
,,,1568.42047, -72.56910,
,,,1570.88654, -80.96910,
,,,1573.35261, -78.96910,
,,,1575.81868, -71.76910,
,,,1578.28475, -71.36910,
,,,1580.75082, -74.16910,
,,,1583.21689, -71.76910,
,,,1585.68296, -72.96910,
,,,1588.14903, -72.16910,
,,,1590.61510, -72.96910,
,,,1593.08117, -70.16910,
,,,1595.54724, -71.36910,
,,,1598.01331, -79.76910,
,,,1600.47938, -74.16910,
,,,1602.94545, -78.96910,
,,,1605.41152, -73.76910,
,,,1607.87759, -76.96910,
,,,1610.34366, -74.96910,
,,,1612.80973, -72.16910,
,,,1615.27580, -72.96910,
,,,1617.74187, -68.56910,
,,,1620.20794, -73.76910,
,,,1622.67401, -77.76910,
,,,1625.14008, -72.56910,
,,,1627.60615, -71.76910,
,,,1630.07222, -77.76910,
,,,1632.53829, -70.16910,
,,,1635.00436, -73.76910,
,,,1637.47043, -70.56910,
,,,1639.93650, -76.16910,
,,,1642.40257, -76.96910,
,,,1644.86864, -68.96910,
,,,1647.33471, -65.76910,
,,,1649.80078, -68.16910,
,,,1652.26685, -76.56910,
,,,1654.73292, -73.36910,
,,,1657.19899, -71.76910,
,,,1659.66506, -76.16910,
,,,1662.13113, -72.16910,
,,,1664.59720, -72.56910,
,,,1667.06327, -70.56910,
,,,1669.52934, -74.96910,
,,,1671.99541, -77.76910,
,,,1674.46148, -76.96910,
,,,1676.92755, -75.36910,
,,,1679.39362, -70.96910,
,,,1681.85969, -71.76910,
,,,1684.32576, -72.16910,
,,,1686.79183, -71.36910,
,,,1689.25790, -71.76910,
,,,1691.72397, -70.56910,
,,,1694.19004, -70.96910,
,,,1696.65611, -73.76910,
,,,1699.12218, -72.16910,
,,,1701.58825, -72.96910,
,,,1704.05432, -68.96910,
,,,1706.52039, -73.76910,
,,,1708.98646, -78.16910,
,,,1711.45253, -74.96910,
,,,1713.91860, -74.96910,
,,,1716.38467, -74.96910,
,,,1718.85074, -74.16910,
,,,1721.31681, -71.76910,
,,,1723.78288, -71.36910,
,,,1726.24895, -71.76910,
,,,1728.71502, -74.96910,
,,,1731.18109, -80.96910,
,,,1733.64716, -75.76910,
,,,1736.11323, -71.76910,
,,,1738.57930, -75.76910,
,,,1741.04537, -71.36910,
,,,1743.51144, -76.16910,
,,,1745.97751, -78.16910,
,,,1748.44358, -76.16910,
,,,1750.90965, -74.56910,
,,,1753.37572, -69.76910,
,,,1755.84179, -74.16910,
,,,1758.30786, -74.16910,
,,,1760.77393, -72.16910,
,,,1763.24000, -73.76910,
,,,1765.70607, -73.76910,
,,,1768.17214, -71.76910,
,,,1770.63821, -71.36910,
,,,1773.10428, -73.36910,
,,,1775.57035, -70.56910,
,,,1778.03642, -71.36910,
,,,1780.50249, -71.76910,
,,,1782.96856, -72.96910,
,,,1785.43463, -73.36910,
,,,1787.90070, -77.76910,
,,,1790.36677, -76.96910,
,,,1792.83284, -74.56910,
,,,1795.29891, -69.76910,
,,,1797.76498, -71.36910,
,,,1800.23105, -78.96910,
,,,1802.69712, -72.96910,
,,,1805.16319, -74.16910,
,,,1807.62926, -71.76910,
,,,1810.09533, -74.96910,
,,,1812.56140, -76.96910,
,,,1815.02747, -76.16910,
,,,1817.49354, -70.56910,
,,,1819.95961, -72.96910,
,,,1822.42568, -76.16910,
,,,1824.89175, -73.76910,
,,,1827.35782, -69.76910,
,,,1829.82389, -72.16910,
,,,1832.28996, -77.76910,
,,,1834.75603, -69.76910,
,,,1837.22210, -75.36910,
,,,1839.68817, -74.96910,
,,,1842.15424, -72.56910,
,,,1844.62031, -72.56910,
,,,1847.08638, -71.36910,
,,,1849.55245, -74.96910,
,,,1852.01852, -72.96910,
,,,1854.48459, -72.16910,
,,,1856.95066, -71.76910,
,,,1859.41673, -77.76910,
,,,1861.88280, -80.96910,
,,,1864.34887, -77.36910,
,,,1866.81494, -71.36910,
,,,1869.28101, -71.76910,
,,,1871.74708, -73.76910,
,,,1874.21315, -74.96910,
,,,1876.67922, -79.76910,
,,,1879.14529, -72.16910,
,,,1881.61136, -72.96910,
,,,1884.07743, -77.36910,
,,,1886.54350, -76.16910,
,,,1889.00957, -74.96910,
